################################################################################
#                                  TracSuite                                   #
#                                    2.14.0                                    #
#                               TracInnovations                                #
#                                  (c) 2014                                    #
################################################################################

Patient ID:            0711056033
Scanner:               mMR
Scan Protocol:         BUF
Patient age:           0
Patient sedated:       no
Registration Log:      Standard
Image artifacts:       
Comments:              

TCL system feedback:   
