Patient ID:            2901105947
Studie/Protokol:       BUF
Scanner:               mMR
PET Længde:            20
Patient bedøvet:       0
MR billede artefakter: 
Sekvens numre:         
Antal genscanninger:   0
Bemærkninger:

Tracoline system komplikationer:

