Patient ID:            2712035253
Studie/Protokol:       BUF/Hjerne
Scanner:               mMR
PET Længde:            40
Patient bedøvet:       0
MR billede artefakter: 
Sekvens numre:         
Antal genscanninger:   0
Bemærkninger:

Tracoline system komplikationer:

