Patient ID:            3112125913
Studie/Protokol:       BUF
Scanner:               mMR
PET Længde:            40
Patient bedøvet:       1
MR billede artefakter: 
Sekvens numre:         
Antal genscanninger:   0
Bemærkninger:

Tracoline system komplikationer:

