*** TracSuite Recording Log ***

TracSuite version:             2.9.0

SVN revision:                  1748
SVN revision date:             01-04-2016 09:39:14
SVN repository URL:            https://svn.imm.dtu.dk/svn/tracoline2/TracSuite/trunk/src

Recording date:                2016-05-31
Recording started at:          12:05:51
Recording ended at:            12:49:58
Total recording time:          00:44:07
First point cloud number:      18303
Last point cloud number:       44777
Number of point clouds:        26475

Recording with the following settings:
Projector text:                LC4500 Flash
Screen number:                 -3
Projector intensity:           90
Pattern Mode:                  CodecUpPhaseShift2x3
Pattern Seq Per Phase Cue:     3
Pattern Threshold:             6
Camera text:                   IDS Imaging: UI324xCP-NIR
Camera interface number:       0
Camera number:                 0
Camera shutter:                25
Camera gamma:                  1
Camera gain:                   0
Camera boost:                  0
Camera image down scale:       4
Camera binning:                1
Trigger mode:                  Hardware
Software mode delay:           10
Calibration file:              TracolineCalibration_20151103.yml
Auto register patient:         1
Auto print tracking:           1
Start recording on scan start: 0
Number of frames to record:    -1
Write images to disk:          0
Write point clouds to disk:    1
Write point clouds as pcd:     1
Write tracking to disk:        1
Image filter:                  0
Image filter kernel size:      3

Output folder:                 D:\DATA\DataTCL\/2016-05-31_BNP
Folder date part:              2016-05-31
Folder name part:              BNP
Folder time part:              120551

TracSuite basic file naming:
Recording base file name:      2016-05-31_BNP_120551
Alignment file ending:         _ALN.tsa
Motion image file ending:      _MOT.png
Motion curve file ending:      _MOT.tsm
Patient file ending:           _PAT.txt
Timing file ending:            _TIM.tst
Tracking A file ending:        _POA.tsp
Tracking Q file ending:        _POQ.tsp
Ref file ending:               _REF_XXXXXX.pcd
PSI images folder:             PSI_Images
PSI images ending:             _IMG_XXXXXX.png
Point clouds folder:           PointClouds
Point clouds file ending:      _PCL_XXXXXX.pcd

Remote System:                 172.16.78.154

   Local Time     Remote Time       Time Diff    Time Diff ms
 12:06:03.221    12:13:54.130    00:07:50.909          470909
 12:49:58.591    12:57:49.460    00:07:50.869          470869
