-1.000000000000000000e+00
0.000000000000000000e+00
0.000000000000000000e+00
1.247310999999999979e+02
0.000000000000000000e+00
0.000000000000000000e+00
1.000000000000000000e+00
-1.094182399999999973e+02
0.000000000000000000e+00
-1.000000000000000000e+00
0.000000000000000000e+00
1.562743499999999983e+02
0.000000000000000000e+00
0.000000000000000000e+00
0.000000000000000000e+00
1.000000000000000000e+00
