-1.000000000000000000e+00
0.000000000000000000e+00
0.000000000000000000e+00
1.295534700000000043e+02
0.000000000000000000e+00
0.000000000000000000e+00
1.000000000000000000e+00
-1.061603900000000067e+02
-0.000000000000000000e+00
-1.000000000000000000e+00
0.000000000000000000e+00
1.260471600000000052e+02
0.000000000000000000e+00
0.000000000000000000e+00
0.000000000000000000e+00
1.000000000000000000e+00
