-1.000000000000000000e+00
0.000000000000000000e+00
0.000000000000000000e+00
1.198489500000000021e+02
0.000000000000000000e+00
0.000000000000000000e+00
1.000000000000000000e+00
-1.136131799999999998e+02
0.000000000000000000e+00
-1.000000000000000000e+00
0.000000000000000000e+00
1.280000000000000000e+02
0.000000000000000000e+00
0.000000000000000000e+00
0.000000000000000000e+00
1.000000000000000000e+00
